{
 "custom_fields": [
  {
   "_assign": null,
   "_comments": null,
   "_liked_by": null,
   "_user_tags": null,
   "allow_in_quick_entry": 0,
   "allow_on_submit": 0,
   "bold": 0,
   "collapsible": 0,
   "collapsible_depends_on": null,
   "columns": 0,
   "creation": "2021-10-11 23:17:30.758643",
   "default": "",
   "depends_on": null,
   "description": null,
   "docstatus": 0,
   "dt": "Sales Invoice",
   "fetch_from": null,
   "fetch_if_empty": 0,
   "fieldname": "purchase_price_list",
   "fieldtype": "Link",
   "hidden": 0,
   "hide_border": 0,
   "hide_days": 0,
   "hide_seconds": 0,
   "idx": 31,
   "ignore_user_permissions": 0,
   "ignore_xss_filter": 0,
   "in_global_search": 0,
   "in_list_view": 0,
   "in_preview": 0,
   "in_standard_filter": 0,
   "insert_after": "po_date",
   "label": "Purchase Price List",
   "length": 0,
   "mandatory_depends_on": null,
   "modified": "2021-10-11 23:17:30.758643",
   "modified_by": "Administrator",
   "name": "Sales Invoice-purchase_price_list",
   "no_copy": 0,
   "non_negative": 0,
   "options": "Price List",
   "owner": "Administrator",
   "parent": null,
   "parentfield": null,
   "parenttype": null,
   "permlevel": 0,
   "precision": "",
   "print_hide": 0,
   "print_hide_if_no_value": 0,
   "print_width": null,
   "read_only": 0,
   "read_only_depends_on": null,
   "report_hide": 0,
   "reqd": 0,
   "search_index": 0,
   "translatable": 0,
   "unique": 0,
   "width": null
  }
 ],
 "custom_perms": [
  {
   "_assign": null,
   "_comments": null,
   "_liked_by": null,
   "_user_tags": null,
   "amend": 1,
   "cancel": 0,
   "create": 1,
   "creation": "2013-05-24 19:29:05",
   "delete": 0,
   "docstatus": 0,
   "email": 1,
   "export": 0,
   "idx": 2,
   "if_owner": 0,
   "import": 0,
   "modified": "2021-08-23 13:55:24.709755",
   "modified_by": "Administrator",
   "name": "2cde319a19",
   "owner": "Administrator",
   "parent": "Sales Invoice",
   "parentfield": "permissions",
   "parenttype": "DocType",
   "permlevel": 0,
   "print": 1,
   "read": 1,
   "report": 1,
   "role": "Accounts User",
   "select": 0,
   "set_user_permissions": 0,
   "share": 1,
   "submit": 1,
   "write": 1
  },
  {
   "_assign": null,
   "_comments": null,
   "_liked_by": null,
   "_user_tags": null,
   "amend": 1,
   "cancel": 1,
   "create": 1,
   "creation": "2013-05-24 19:29:05",
   "delete": 1,
   "docstatus": 0,
   "email": 1,
   "export": 0,
   "idx": 1,
   "if_owner": 0,
   "import": 0,
   "modified": "2021-08-23 13:55:24.729933",
   "modified_by": "Administrator",
   "name": "35c679ce8e",
   "owner": "Administrator",
   "parent": "Sales Invoice",
   "parentfield": "permissions",
   "parenttype": "DocType",
   "permlevel": 0,
   "print": 1,
   "read": 1,
   "report": 1,
   "role": "Accounts Manager",
   "select": 0,
   "set_user_permissions": 0,
   "share": 1,
   "submit": 1,
   "write": 1
  },
  {
   "_assign": null,
   "_comments": null,
   "_liked_by": null,
   "_user_tags": null,
   "amend": 0,
   "cancel": 0,
   "create": 0,
   "creation": "2013-05-24 19:29:05",
   "delete": 0,
   "docstatus": 0,
   "email": 0,
   "export": 0,
   "idx": 4,
   "if_owner": 0,
   "import": 0,
   "modified": "2021-08-23 13:55:24.749929",
   "modified_by": "Administrator",
   "name": "f7715a3e9b",
   "owner": "Administrator",
   "parent": "Sales Invoice",
   "parentfield": "permissions",
   "parenttype": "DocType",
   "permlevel": 1,
   "print": 0,
   "read": 1,
   "report": 0,
   "role": "All",
   "select": 0,
   "set_user_permissions": 0,
   "share": 0,
   "submit": 0,
   "write": 0
  },
  {
   "_assign": null,
   "_comments": null,
   "_liked_by": null,
   "_user_tags": null,
   "amend": 0,
   "cancel": 0,
   "create": 0,
   "creation": "2013-05-24 19:29:05",
   "delete": 0,
   "docstatus": 0,
   "email": 0,
   "export": 0,
   "idx": 3,
   "if_owner": 0,
   "import": 0,
   "modified": "2021-08-23 13:55:24.769644",
   "modified_by": "Administrator",
   "name": "9a9a169f0b",
   "owner": "Administrator",
   "parent": "Sales Invoice",
   "parentfield": "permissions",
   "parenttype": "DocType",
   "permlevel": 1,
   "print": 0,
   "read": 1,
   "report": 0,
   "role": "Accounts Manager",
   "select": 0,
   "set_user_permissions": 0,
   "share": 0,
   "submit": 0,
   "write": 1
  },
  {
   "_assign": null,
   "_comments": null,
   "_liked_by": null,
   "_user_tags": null,
   "amend": 0,
   "cancel": 0,
   "create": 0,
   "creation": "2021-08-23 13:55:24.793650",
   "delete": 0,
   "docstatus": 0,
   "email": 0,
   "export": 1,
   "idx": 0,
   "if_owner": 0,
   "import": 0,
   "modified": "2021-08-23 13:55:24.900462",
   "modified_by": "Administrator",
   "name": "4f551e1a9b",
   "owner": "Administrator",
   "parent": "Sales Invoice",
   "parentfield": "permissions",
   "parenttype": "DocType",
   "permlevel": 0,
   "print": 0,
   "read": 0,
   "report": 0,
   "role": "Employee Self Service",
   "select": 1,
   "set_user_permissions": 0,
   "share": 0,
   "submit": 0,
   "write": 0
  }
 ],
 "doctype": "Sales Invoice",
 "property_setters": [
  {
   "_assign": null,
   "_comments": null,
   "_liked_by": null,
   "_user_tags": null,
   "creation": "2021-09-29 22:32:40.768217",
   "default_value": null,
   "doc_type": "Sales Invoice",
   "docstatus": 0,
   "doctype_or_field": "DocField",
   "field_name": "scan_barcode",
   "idx": 0,
   "modified": "2021-09-29 22:32:40.768217",
   "modified_by": "Administrator",
   "name": "Sales Invoice-scan_barcode-hidden",
   "owner": "Administrator",
   "parent": null,
   "parentfield": null,
   "parenttype": null,
   "property": "hidden",
   "property_type": "Check",
   "row_name": null,
   "value": "0"
  },
  {
   "_assign": null,
   "_comments": null,
   "_liked_by": null,
   "_user_tags": null,
   "creation": "2021-09-02 20:22:39.980568",
   "default_value": null,
   "doc_type": "Sales Invoice",
   "docstatus": 0,
   "doctype_or_field": "DocField",
   "field_name": "naming_series",
   "idx": 0,
   "modified": "2021-09-02 20:22:39.980568",
   "modified_by": "Administrator",
   "name": "Sales Invoice-naming_series-options",
   "owner": "Administrator",
   "parent": null,
   "parentfield": null,
   "parenttype": null,
   "property": "options",
   "property_type": "Text",
   "row_name": null,
   "value": "ACC-SINV-.YYYY.-\nACC-SINV-RET-.YYYY.-"
  },
  {
   "_assign": null,
   "_comments": null,
   "_liked_by": null,
   "_user_tags": null,
   "creation": "2021-08-23 13:55:18.512005",
   "default_value": null,
   "doc_type": "Sales Invoice",
   "docstatus": 0,
   "doctype_or_field": "DocField",
   "field_name": "additional_discount_account",
   "idx": 0,
   "modified": "2021-08-23 13:55:18.512005",
   "modified_by": "Administrator",
   "name": "Sales Invoice-additional_discount_account-mandatory_depends_on",
   "owner": "Administrator",
   "parent": null,
   "parentfield": null,
   "parenttype": null,
   "property": "mandatory_depends_on",
   "property_type": "Code",
   "row_name": null,
   "value": ""
  },
  {
   "_assign": null,
   "_comments": null,
   "_liked_by": null,
   "_user_tags": null,
   "creation": "2021-08-23 13:55:18.493124",
   "default_value": null,
   "doc_type": "Sales Invoice",
   "docstatus": 0,
   "doctype_or_field": "DocField",
   "field_name": "additional_discount_account",
   "idx": 0,
   "modified": "2021-08-23 13:55:18.493124",
   "modified_by": "Administrator",
   "name": "Sales Invoice-additional_discount_account-hidden",
   "owner": "Administrator",
   "parent": null,
   "parentfield": null,
   "parenttype": null,
   "property": "hidden",
   "property_type": "Check",
   "row_name": null,
   "value": "1"
  },
  {
   "_assign": null,
   "_comments": null,
   "_liked_by": null,
   "_user_tags": null,
   "creation": "2021-08-23 13:55:18.316029",
   "default_value": null,
   "doc_type": "Sales Invoice",
   "docstatus": 0,
   "doctype_or_field": "DocField",
   "field_name": "payment_schedule",
   "idx": 0,
   "modified": "2021-08-23 13:55:18.316029",
   "modified_by": "Administrator",
   "name": "Sales Invoice-payment_schedule-print_hide",
   "owner": "Administrator",
   "parent": null,
   "parentfield": null,
   "parenttype": null,
   "property": "print_hide",
   "property_type": "Check",
   "row_name": null,
   "value": "1"
  },
  {
   "_assign": null,
   "_comments": null,
   "_liked_by": null,
   "_user_tags": null,
   "creation": "2021-08-23 13:55:18.296706",
   "default_value": null,
   "doc_type": "Sales Invoice",
   "docstatus": 0,
   "doctype_or_field": "DocField",
   "field_name": "due_date",
   "idx": 0,
   "modified": "2021-08-23 13:55:18.296706",
   "modified_by": "Administrator",
   "name": "Sales Invoice-due_date-print_hide",
   "owner": "Administrator",
   "parent": null,
   "parentfield": null,
   "parenttype": null,
   "property": "print_hide",
   "property_type": "Check",
   "row_name": null,
   "value": "0"
  },
  {
   "_assign": null,
   "_comments": null,
   "_liked_by": null,
   "_user_tags": null,
   "creation": "2021-08-23 10:28:36.786442",
   "default_value": null,
   "doc_type": "Sales Invoice",
   "docstatus": 0,
   "doctype_or_field": "DocField",
   "field_name": "in_words",
   "idx": 0,
   "modified": "2021-08-23 10:28:36.786442",
   "modified_by": "Administrator",
   "name": "Sales Invoice-in_words-print_hide",
   "owner": "Administrator",
   "parent": null,
   "parentfield": null,
   "parenttype": null,
   "property": "print_hide",
   "property_type": "Check",
   "row_name": null,
   "value": "0"
  },
  {
   "_assign": null,
   "_comments": null,
   "_liked_by": null,
   "_user_tags": null,
   "creation": "2021-08-23 10:28:36.760347",
   "default_value": null,
   "doc_type": "Sales Invoice",
   "docstatus": 0,
   "doctype_or_field": "DocField",
   "field_name": "in_words",
   "idx": 0,
   "modified": "2021-08-23 10:28:36.760347",
   "modified_by": "Administrator",
   "name": "Sales Invoice-in_words-hidden",
   "owner": "Administrator",
   "parent": null,
   "parentfield": null,
   "parenttype": null,
   "property": "hidden",
   "property_type": "Check",
   "row_name": null,
   "value": "0"
  },
  {
   "_assign": null,
   "_comments": null,
   "_liked_by": null,
   "_user_tags": null,
   "creation": "2021-08-23 10:28:35.733524",
   "default_value": null,
   "doc_type": "Sales Invoice",
   "docstatus": 0,
   "doctype_or_field": "DocField",
   "field_name": "disable_rounded_total",
   "idx": 0,
   "modified": "2021-08-23 10:28:35.733524",
   "modified_by": "Administrator",
   "name": "Sales Invoice-disable_rounded_total-default",
   "owner": "Administrator",
   "parent": null,
   "parentfield": null,
   "parenttype": null,
   "property": "default",
   "property_type": "Text",
   "row_name": null,
   "value": "0"
  },
  {
   "_assign": null,
   "_comments": null,
   "_liked_by": null,
   "_user_tags": null,
   "creation": "2021-08-23 10:28:35.709786",
   "default_value": null,
   "doc_type": "Sales Invoice",
   "docstatus": 0,
   "doctype_or_field": "DocField",
   "field_name": "rounded_total",
   "idx": 0,
   "modified": "2021-08-23 10:28:35.709786",
   "modified_by": "Administrator",
   "name": "Sales Invoice-rounded_total-print_hide",
   "owner": "Administrator",
   "parent": null,
   "parentfield": null,
   "parenttype": null,
   "property": "print_hide",
   "property_type": "Check",
   "row_name": null,
   "value": "0"
  },
  {
   "_assign": null,
   "_comments": null,
   "_liked_by": null,
   "_user_tags": null,
   "creation": "2021-08-23 10:28:35.684338",
   "default_value": null,
   "doc_type": "Sales Invoice",
   "docstatus": 0,
   "doctype_or_field": "DocField",
   "field_name": "rounded_total",
   "idx": 0,
   "modified": "2021-08-23 10:28:35.684338",
   "modified_by": "Administrator",
   "name": "Sales Invoice-rounded_total-hidden",
   "owner": "Administrator",
   "parent": null,
   "parentfield": null,
   "parenttype": null,
   "property": "hidden",
   "property_type": "Check",
   "row_name": null,
   "value": "0"
  },
  {
   "_assign": null,
   "_comments": null,
   "_liked_by": null,
   "_user_tags": null,
   "creation": "2021-08-23 10:28:35.657186",
   "default_value": null,
   "doc_type": "Sales Invoice",
   "docstatus": 0,
   "doctype_or_field": "DocField",
   "field_name": "base_rounded_total",
   "idx": 0,
   "modified": "2021-08-23 10:28:35.657186",
   "modified_by": "Administrator",
   "name": "Sales Invoice-base_rounded_total-print_hide",
   "owner": "Administrator",
   "parent": null,
   "parentfield": null,
   "parenttype": null,
   "property": "print_hide",
   "property_type": "Check",
   "row_name": null,
   "value": "1"
  },
  {
   "_assign": null,
   "_comments": null,
   "_liked_by": null,
   "_user_tags": null,
   "creation": "2021-08-23 10:28:35.632845",
   "default_value": null,
   "doc_type": "Sales Invoice",
   "docstatus": 0,
   "doctype_or_field": "DocField",
   "field_name": "base_rounded_total",
   "idx": 0,
   "modified": "2021-08-23 10:28:35.632845",
   "modified_by": "Administrator",
   "name": "Sales Invoice-base_rounded_total-hidden",
   "owner": "Administrator",
   "parent": null,
   "parentfield": null,
   "parenttype": null,
   "property": "hidden",
   "property_type": "Check",
   "row_name": null,
   "value": "0"
  },
  {
   "_assign": null,
   "_comments": null,
   "_liked_by": null,
   "_user_tags": null,
   "creation": "2021-08-23 10:28:34.933061",
   "default_value": null,
   "doc_type": "Sales Invoice",
   "docstatus": 0,
   "doctype_or_field": "DocField",
   "field_name": "tax_id",
   "idx": 0,
   "modified": "2021-08-23 10:28:34.933061",
   "modified_by": "Administrator",
   "name": "Sales Invoice-tax_id-print_hide",
   "owner": "Administrator",
   "parent": null,
   "parentfield": null,
   "parenttype": null,
   "property": "print_hide",
   "property_type": "Check",
   "row_name": null,
   "value": "0"
  },
  {
   "_assign": null,
   "_comments": null,
   "_liked_by": null,
   "_user_tags": null,
   "creation": "2021-08-23 10:28:34.909372",
   "default_value": null,
   "doc_type": "Sales Invoice",
   "docstatus": 0,
   "doctype_or_field": "DocField",
   "field_name": "tax_id",
   "idx": 0,
   "modified": "2021-08-23 10:28:34.909372",
   "modified_by": "Administrator",
   "name": "Sales Invoice-tax_id-hidden",
   "owner": "Administrator",
   "parent": null,
   "parentfield": null,
   "parenttype": null,
   "property": "hidden",
   "property_type": "Check",
   "row_name": null,
   "value": "0"
  }
 ],
 "sync_on_migrate": 1
}